\relax 
\providecommand\hyper@newdestlabel[2]{}
\providecommand\HyperFirstAtBeginDocument{\AtBeginDocument}
\HyperFirstAtBeginDocument{\ifx\hyper@anchor\@undefined
\global\let\oldcontentsline\contentsline
\gdef\contentsline#1#2#3#4{\oldcontentsline{#1}{#2}{#3}}
\global\let\oldnewlabel\newlabel
\gdef\newlabel#1#2{\newlabelxx{#1}#2}
\gdef\newlabelxx#1#2#3#4#5#6{\oldnewlabel{#1}{{#2}{#3}}}
\AtEndDocument{\ifx\hyper@anchor\@undefined
\let\contentsline\oldcontentsline
\let\newlabel\oldnewlabel
\fi}
\fi}
\global\let\hyper@last\relax 
\gdef\HyperFirstAtBeginDocument#1{#1}
\providecommand\HyField@AuxAddToFields[1]{}
\providecommand\HyField@AuxAddToCoFields[2]{}
\@nameuse{bbl@beforestart}
\catcode `"\active 
\catcode `<\active 
\catcode `>\active 
\@nameuse{es@quoting}
\babel@aux{spanish}{}
\@writefile{toc}{\contentsline {part}{I\hspace  {1em}Generalidades del proyecto}{5}{part.1}\protected@file@percent }
\citation{memoryhistory}
\citation{yandere}
\@writefile{toc}{\contentsline {chapter}{Descripción del problema}{7}{chapter*.2}\protected@file@percent }
\@writefile{lof}{\addvspace {10\p@ }}
\@writefile{lot}{\addvspace {10\p@ }}
\@writefile{lof}{\contentsline {figure}{\numberline {1}{\ignorespaces Computadora IBM 726, almacenaba la memoria en cintas magnéticas en el año 1952.}}{7}{chapter*.2}\protected@file@percent }
\newlabel{fig:cintamag}{{1}{7}{Descripción del problema}{chapter*.2}{}}
\citation{learningtoprogram}
\@writefile{toc}{\contentsline {chapter}{Planteamiento del problema}{9}{chapter*.3}\protected@file@percent }
\@writefile{lof}{\addvspace {10\p@ }}
\@writefile{lot}{\addvspace {10\p@ }}
\@writefile{toc}{\contentsline {chapter}{Objetivos}{11}{chapter*.4}\protected@file@percent }
\@writefile{lof}{\addvspace {10\p@ }}
\@writefile{lot}{\addvspace {10\p@ }}
\@writefile{toc}{\contentsline {section}{Objetivos generales}{11}{section*.5}\protected@file@percent }
\@writefile{toc}{\contentsline {section}{Objetivos específicos}{11}{section*.6}\protected@file@percent }
\@writefile{toc}{\contentsline {chapter}{Hipótesis y supuestos}{13}{chapter*.7}\protected@file@percent }
\@writefile{lof}{\addvspace {10\p@ }}
\@writefile{lot}{\addvspace {10\p@ }}
\@writefile{lof}{\contentsline {figure}{\numberline {2}{\ignorespaces CodeWars, una comunidad sana que gamifica la resolución de retos en varios lenguajes de programación.}}{13}{chapter*.7}\protected@file@percent }
\newlabel{fig:codewars}{{2}{13}{Hipótesis y supuestos}{chapter*.7}{}}
\@writefile{toc}{\contentsline {chapter}{Justificación}{15}{chapter*.8}\protected@file@percent }
\@writefile{lof}{\addvspace {10\p@ }}
\@writefile{lot}{\addvspace {10\p@ }}
\@writefile{toc}{\contentsline {part}{II\hspace  {1em}Marco Teórico}{17}{part.2}\protected@file@percent }
\citation{trie1}
\citation{trie2}
\citation{memofuncs}
\@writefile{toc}{\contentsline {chapter}{Antecedentes o marco histórico}{19}{chapter*.9}\protected@file@percent }
\@writefile{lof}{\addvspace {10\p@ }}
\@writefile{lot}{\addvspace {10\p@ }}
\newlabel{label:historico}{{II}{19}{Antecedentes o marco histórico}{chapter*.9}{}}
\@writefile{toc}{\contentsline {section}{\textbf  {Sobre los temas tratados}}{19}{section*.10}\protected@file@percent }
\@writefile{toc}{\contentsline {subsection}{La ``Trie''}{19}{subsection*.11}\protected@file@percent }
\@writefile{lof}{\contentsline {figure}{\numberline {3}{\ignorespaces Palabras comunes almacenadas como un ramas de un árbol.}}{19}{subsection*.11}\protected@file@percent }
\newlabel{fig:trie}{{3}{19}{La ``Trie''}{subsection*.11}{}}
\@writefile{toc}{\contentsline {subsection}{La memoización}{19}{subsection*.12}\protected@file@percent }
\@writefile{toc}{\contentsline {subsection}{La programación dinámica}{19}{subsection*.13}\protected@file@percent }
\citation{theclang}
\newpmemlabel{^_1}{20}
\@writefile{lof}{\contentsline {figure}{\numberline {4}{\ignorespaces Una variación del problema de Knapsack que pide optimizar el consumo de calorias. Se puede resolver con un acercamiento recursivo.}}{20}{subsection*.13}\protected@file@percent }
\newlabel{fig:knapsack}{{4}{20}{La programación dinámica}{subsection*.13}{}}
\@writefile{toc}{\contentsline {subsection}{El lenguaje de programación C}{20}{subsection*.14}\protected@file@percent }
\@writefile{toc}{\contentsline {section}{\textbf  {Contribuciones a la enseñanza}}{21}{section*.15}\protected@file@percent }
\@writefile{lof}{\contentsline {figure}{\numberline {5}{\ignorespaces FreeCodeCamp ahora incluye secciones para el estudio de estructura de datos y conceptos de bajo nivel.}}{21}{section*.15}\protected@file@percent }
\newlabel{fig:fcc}{{5}{21}{\textbf {Contribuciones a la enseñanza}}{section*.15}{}}
\@writefile{lof}{\contentsline {figure}{\numberline {6}{\ignorespaces Ejemplo de una ilustración del libro \textit  {Grokking Algorithms} y se trata de la visualización de un \textbf  {grafo} de amigos.}}{21}{section*.15}\protected@file@percent }
\newlabel{fig:grokking}{{6}{21}{\textbf {Contribuciones a la enseñanza}}{section*.15}{}}
\@writefile{lof}{\contentsline {figure}{\numberline {7}{\ignorespaces Danza folklorica para la demostración del algoritmo Quicksort, se puede ver en \url  {https://www.youtube.com/watch?v=ywWBy6J5gz8}.}}{21}{section*.15}\protected@file@percent }
\newlabel{fig:qsort}{{7}{21}{\textbf {Contribuciones a la enseñanza}}{section*.15}{}}
\@writefile{lof}{\contentsline {figure}{\numberline {8}{\ignorespaces El profesor David J. Malan explica la importancia de los números binarios en una conferencia (Otoño 2014).}}{21}{section*.15}\protected@file@percent }
\newlabel{fig:cs50}{{8}{21}{\textbf {Contribuciones a la enseñanza}}{section*.15}{}}
\citation{algoritmosintro}
\@writefile{toc}{\contentsline {chapter}{Marco conceptual}{23}{chapter*.16}\protected@file@percent }
\@writefile{lof}{\addvspace {10\p@ }}
\@writefile{lot}{\addvspace {10\p@ }}
\@writefile{toc}{\contentsline {section}{Estructura de datos}{23}{section*.17}\protected@file@percent }
\newpmemlabel{^_2}{23}
\@writefile{lof}{\contentsline {figure}{\numberline {9}{\ignorespaces Estructuras de datos representadas como bloques.}}{23}{section*.17}\protected@file@percent }
\newlabel{fig:estrdatos}{{9}{23}{Estructura de datos}{section*.17}{}}
\@writefile{toc}{\contentsline {section}{Algoritmo}{24}{section*.18}\protected@file@percent }
\@writefile{toc}{\contentsline {section}{Big O Notation}{24}{section*.19}\protected@file@percent }
\@writefile{lof}{\contentsline {figure}{\numberline {10}{\ignorespaces Gráfica de las variaciones de $O$ en donde el caso más eficientes $O(1)$ al representar un tiempo lineal de ejecución, y $O(n^2)$ el peor de los casos.}}{24}{section*.19}\protected@file@percent }
\newlabel{fig:bigo}{{10}{24}{Big O Notation}{section*.19}{}}
\@writefile{toc}{\contentsline {section}{Optimización}{24}{section*.20}\protected@file@percent }
\@writefile{lof}{\contentsline {figure}{\numberline {11}{\ignorespaces Comando \texttt  {time} en la terminal de Linux que mide el tiempo de ejecución en segundos de un proceso; esta herramienta viene por defecto y se puede usar para hacer benchmarks.}}{24}{section*.20}\protected@file@percent }
\newlabel{fig:sleep}{{11}{24}{Optimización}{section*.20}{}}
\newpmemlabel{^_3}{25}
\@writefile{lof}{\contentsline {figure}{\numberline {12}{\ignorespaces Herramienta de perfilado dentro de IntelliJ IDEA\spacefactor \@m {}. En éste se puede observar un desglosamiento de clases e hilos con gráficas en tiempo real.}}{25}{section*.20}\protected@file@percent }
\newlabel{fig:profiling}{{12}{25}{Optimización}{section*.20}{}}
\@writefile{toc}{\contentsline {section}{Naive implementation}{25}{section*.21}\protected@file@percent }
\citation{studentdifficulties}
\@writefile{toc}{\contentsline {chapter}{Marco referencial}{27}{chapter*.22}\protected@file@percent }
\@writefile{lof}{\addvspace {10\p@ }}
\@writefile{lot}{\addvspace {10\p@ }}
\citation{litreview}
\newpmemlabel{^_4}{28}
\@writefile{lot}{\contentsline {table}{\numberline {1}{\ignorespaces Tabla con los resultados de las distintas estructuras evaluadas y un resumen de las dificultades más comunes.}}{28}{lstnumber.-2.7}\protected@file@percent }
\newlabel{table:art1}{{1}{28}{Marco referencial}{lstnumber.-2.7}{}}
\@writefile{toc}{\contentsline {section}{Reseñando métodos de enseñanza y obras}{28}{section*.23}\protected@file@percent }
\citation{ilearning}
\@writefile{lof}{\contentsline {figure}{\numberline {13}{\ignorespaces La herramienta Vedya, un software utilizado en aulas de la India para facilitar la visualización y el aprendizaje de las estructuras de datos y sus distintas operaciones.}}{29}{Item.4}\protected@file@percent }
\newlabel{fig:vedya}{{13}{29}{Reseñando métodos de enseñanza y obras}{Item.4}{}}
\@writefile{toc}{\contentsline {section}{Enseñanza gamificada}{29}{section*.24}\protected@file@percent }
\@writefile{lof}{\contentsline {figure}{\numberline {14}{\ignorespaces Una pantalla del juego DSLEP. Se le presenta al usuario un juego interactivo de las torres de Hanoi, problema que se usa para enseñar los principios de la recursión y la división en sub-problemas.}}{29}{section*.24}\protected@file@percent }
\newlabel{fig:name}{{14}{29}{Enseñanza gamificada}{section*.24}{}}
\@writefile{toc}{\contentsline {part}{III\hspace  {1em}Metodología}{31}{part.3}\protected@file@percent }
\@writefile{toc}{\contentsline {chapter}{Población o universo/muestra}{33}{chapter*.25}\protected@file@percent }
\@writefile{lof}{\addvspace {10\p@ }}
\@writefile{lot}{\addvspace {10\p@ }}
\@writefile{lof}{\contentsline {figure}{\numberline {15}{\ignorespaces Canales del Discord de FreeCodeCamp, la encuesta se realizó en el canal general, ahora conocido como \textit  {offtopic}.}}{33}{chapter*.25}\protected@file@percent }
\newlabel{fig:discord}{{15}{33}{Población o universo/muestra}{chapter*.25}{}}
\@writefile{toc}{\contentsline {chapter}{Tipo de estudio}{35}{chapter*.26}\protected@file@percent }
\@writefile{lof}{\addvspace {10\p@ }}
\@writefile{lot}{\addvspace {10\p@ }}
\newpmemlabel{^_5}{35}
\@writefile{toc}{\contentsline {chapter}{Descripción del Instrumento}{37}{chapter*.27}\protected@file@percent }
\@writefile{lof}{\addvspace {10\p@ }}
\@writefile{lot}{\addvspace {10\p@ }}
\newpmemlabel{^_6}{37}
\@writefile{lof}{\contentsline {figure}{\numberline {16}{\ignorespaces Typeform. Una plataforma web para realizar cuestionarios atractivos para las masas.}}{37}{chapter*.27}\protected@file@percent }
\newlabel{fig:typeform}{{16}{37}{Descripción del Instrumento}{chapter*.27}{}}
\@writefile{toc}{\contentsline {chapter}{Procedimiento de recolección}{39}{chapter*.28}\protected@file@percent }
\@writefile{lof}{\addvspace {10\p@ }}
\@writefile{lot}{\addvspace {10\p@ }}
\@writefile{toc}{\contentsline {section}{Diseñando las preguntas}{39}{section*.29}\protected@file@percent }
\@writefile{toc}{\contentsline {paragraph}{Pregunta 1}{39}{paragraph*.30}\protected@file@percent }
\@writefile{toc}{\contentsline {paragraph}{Pregunta 2}{39}{paragraph*.31}\protected@file@percent }
\@writefile{toc}{\contentsline {paragraph}{Pregunta 3}{39}{paragraph*.32}\protected@file@percent }
\@writefile{toc}{\contentsline {paragraph}{Pregunta 4}{39}{paragraph*.33}\protected@file@percent }
\@writefile{toc}{\contentsline {paragraph}{Pregunta 5}{40}{paragraph*.34}\protected@file@percent }
\@writefile{toc}{\contentsline {paragraph}{Pregunta 6}{40}{paragraph*.35}\protected@file@percent }
\@writefile{toc}{\contentsline {paragraph}{Pregunta 7}{40}{paragraph*.36}\protected@file@percent }
\@writefile{toc}{\contentsline {paragraph}{Pregunta 8}{40}{paragraph*.37}\protected@file@percent }
\@writefile{toc}{\contentsline {paragraph}{Pregunta 9}{40}{paragraph*.38}\protected@file@percent }
\@writefile{toc}{\contentsline {paragraph}{Pregunta 10}{40}{paragraph*.39}\protected@file@percent }
\@writefile{toc}{\contentsline {paragraph}{Pregunta 11}{41}{paragraph*.40}\protected@file@percent }
\@writefile{toc}{\contentsline {paragraph}{Pregunta 12}{41}{paragraph*.41}\protected@file@percent }
\@writefile{lof}{\contentsline {figure}{\numberline {17}{\ignorespaces Un fractal recursivo formado por una forma contenida dentro de sí mismo en niveles infinitos.}}{41}{paragraph*.41}\protected@file@percent }
\newlabel{fig:recursion}{{17}{41}{Pregunta 12}{paragraph*.41}{}}
\@writefile{toc}{\contentsline {paragraph}{Pregunta 13}{41}{paragraph*.42}\protected@file@percent }
\@writefile{toc}{\contentsline {paragraph}{Pregunta 14}{41}{paragraph*.43}\protected@file@percent }
\citation{rpsgrafo}
\@writefile{lof}{\contentsline {figure}{\numberline {18}{\ignorespaces Representación en grafo del juego \textit  {Rock-Paper-Scissors-Lizard-Spock}}}{42}{paragraph*.43}\protected@file@percent }
\newlabel{fig:pptls}{{18}{42}{Pregunta 14}{paragraph*.43}{}}
\@writefile{toc}{\contentsline {paragraph}{Pregunta 15}{42}{paragraph*.44}\protected@file@percent }
\@writefile{toc}{\contentsline {section}{Problema de Advent of Code}{42}{section*.45}\protected@file@percent }
\@writefile{toc}{\contentsline {section}{Obteniendo el dataset}{42}{section*.46}\protected@file@percent }
\@writefile{toc}{\contentsline {part}{IV\hspace  {1em}Resultados y conclusiones}{43}{part.4}\protected@file@percent }
\citation{encuestademo}
\@writefile{toc}{\contentsline {chapter}{Resultados obtenidos y discusión}{45}{chapter*.47}\protected@file@percent }
\@writefile{lof}{\addvspace {10\p@ }}
\@writefile{lot}{\addvspace {10\p@ }}
\@writefile{lof}{\contentsline {figure}{\numberline {19}{\ignorespaces Resultados de la encuesta en cuestiones de edad. Organizada por grupos de edad (10 años).}}{45}{chapter*.47}\protected@file@percent }
\newlabel{fig:edad}{{19}{45}{Resultados obtenidos y discusión}{chapter*.47}{}}
\@writefile{toc}{\contentsline {section}{\textbf  {Resultados de las preguntas cuantificables}}{45}{section*.48}\protected@file@percent }
\@writefile{toc}{\contentsline {subsection}{Pregunta 1}{45}{subsection*.49}\protected@file@percent }
\newpmemlabel{^_7}{45}
\@writefile{lof}{\contentsline {figure}{\numberline {20}{\ignorespaces Distribución de dos las variables edad-experiencia. Existe un volumen inferior de desarrolladores adultos mayores pero no existe una correlación obvia entre su edad y experiencia.}}{45}{subsection*.49}\protected@file@percent }
\newlabel{fig:grafiedad}{{20}{45}{Pregunta 1}{subsection*.49}{}}
\@writefile{toc}{\contentsline {subsection}{Pregunta 2}{46}{subsection*.50}\protected@file@percent }
\newpmemlabel{^_8}{46}
\@writefile{toc}{\contentsline {subsection}{Pregunta 3}{46}{subsection*.51}\protected@file@percent }
\newpmemlabel{^_9}{46}
\@writefile{toc}{\contentsline {subsection}{Pregunta 4}{47}{subsection*.52}\protected@file@percent }
\newpmemlabel{^_10}{47}
\@writefile{toc}{\contentsline {subsection}{Pregunta 7}{47}{subsection*.53}\protected@file@percent }
\newpmemlabel{^_11}{47}
\@writefile{toc}{\contentsline {subsection}{Pregunta 9}{48}{subsection*.54}\protected@file@percent }
\newpmemlabel{^_12}{48}
\@writefile{toc}{\contentsline {subsection}{Pregunta 10}{48}{subsection*.55}\protected@file@percent }
\newpmemlabel{^_13}{48}
\@writefile{toc}{\contentsline {subsection}{Pregunta 14}{49}{subsection*.56}\protected@file@percent }
\newpmemlabel{^_14}{49}
\@writefile{toc}{\contentsline {subsection}{Pregunta 15}{49}{subsection*.57}\protected@file@percent }
\newpmemlabel{^_15}{49}
\@writefile{toc}{\contentsline {section}{\textbf  {Resultados de las preguntas abiertas}}{50}{section*.58}\protected@file@percent }
\@writefile{toc}{\contentsline {subsection}{Pregunta 5}{50}{subsection*.59}\protected@file@percent }
\@writefile{toc}{\contentsline {subsection}{Pregunta 6}{51}{subsection*.60}\protected@file@percent }
\@writefile{toc}{\contentsline {subsection}{Pregunta 8}{51}{subsection*.61}\protected@file@percent }
\newpmemlabel{^_16}{51}
\@writefile{lot}{\contentsline {table}{\numberline {2}{\ignorespaces Conceptos y estructuras de datos mencionados por los participantes organizados por frencuencia y tipo.}}{51}{subsection*.61}\protected@file@percent }
\newlabel{table:conceptos}{{2}{51}{Pregunta 8}{subsection*.61}{}}
\@writefile{toc}{\contentsline {subsection}{Pregunta 11}{52}{subsection*.62}\protected@file@percent }
\@writefile{toc}{\contentsline {subsection}{Pregunta 12}{52}{subsection*.63}\protected@file@percent }
\@writefile{toc}{\contentsline {subsection}{Pregunta 13}{52}{subsection*.64}\protected@file@percent }
\newpmemlabel{^_17}{53}
\@writefile{lof}{\contentsline {figure}{\numberline {21}{\ignorespaces Demostración de la diferencia entre puntero y referencia dentro del lenguaje C++. Créditos de la imagen: Edspresso (by Educative.io) accesible en: \url  {https://www.educative.io/edpresso/}}}{53}{subsection*.64}\protected@file@percent }
\newlabel{fig:puntero}{{21}{53}{Pregunta 13}{subsection*.64}{}}
\@writefile{toc}{\contentsline {section}{\textbf  {Resultados de la prueba de código}}{53}{section*.65}\protected@file@percent }
\@writefile{toc}{\contentsline {subsection}{Implementación ingenua en JavaScript}{53}{subsection*.66}\protected@file@percent }
\@writefile{toc}{\contentsline {subsection}{Implementación con diccionarios en Haskell}{55}{subsection*.67}\protected@file@percent }
\citation{lut}
\@writefile{toc}{\contentsline {subsection}{\textbf  {Implementación en C++ con una \textit  {Lookup Table}}}{56}{subsection*.68}\protected@file@percent }
\@writefile{toc}{\contentsline {chapter}{Conclusiones y recomendaciones}{57}{chapter*.69}\protected@file@percent }
\@writefile{lof}{\addvspace {10\p@ }}
\@writefile{lot}{\addvspace {10\p@ }}
\@writefile{toc}{\contentsline {section}{Recomendaciones}{58}{section*.70}\protected@file@percent }
\bibdata{bibliography.bib}
\bibcite{encuestademo}{{1}{}{{enc}}{{}}}
\bibcite{lut}{{2}{}{{lut}}{{}}}
\bibcite{memoryhistory}{{3}{2020}{{Bevacqua}}{{}}}
\bibcite{rpsgrafo}{{4}{2015}{{Chamberland and Herman}}{{}}}
\bibcite{algoritmosintro}{{5}{2009}{{Cormen et~al.}}{{Cormen, Leiserson, Rivest, and Stein}}}
\bibcite{ilearning}{{6}{2014}{{Costa et~al.}}{{Costa, Toda, Mesquita, Matsunaga, and Brancher}}}
\bibcite{trie1}{{7}{1959}{{De~La~Briandais}}{{}}}
\bibcite{trie2}{{8}{1960}{{Fredkin}}{{}}}
\bibcite{learningtoprogram}{{9}{2007}{{Gomes and Mendes}}{{}}}
\bibcite{theclang}{{10}{2006}{{Kernighan and Ritchie}}{{}}}
\bibcite{memofuncs}{{11}{1968}{{Michie}}{{}}}
\bibcite{litreview}{{12}{2014}{{Patel}}{{}}}
\bibcite{yandere}{{13}{2020}{{Spoctor}}{{}}}
\@writefile{toc}{\contentsline {chapter}{Bibliograf\'{\i }a}{59}{chapter*.71}\protected@file@percent }
\@writefile{lof}{\addvspace {10\p@ }}
\@writefile{lot}{\addvspace {10\p@ }}
\bibcite{studentdifficulties}{{14}{2018}{{Zingaro et~al.}}{{Zingaro, Taylor, Porter, Clancy, Lee, Nam~Liao, and Webb}}}
\bibstyle{plainnat}
\ttl@finishall
